﻿   //for (int pop = 0; pop < popSize; pop++)
            //{
            //    Coordinate[,] balloonsCoordinate = new Coordinate[instance.NrTurns, instance.NrBaloons];
            //    balloonsCoordinate.Populate(new Coordinate());
            //    int[,] solution = new int[instance.NrTurns, instance.NrBaloons];
            //    int randomNumberOfBalloons = instance.NrBaloons;
            //    //select a 
            //    bool lunchAllBaloons = true;
            //    lunchAllBaloons = Convert.ToBoolean(randomNumberGenerator.Next(0, 2));
            //    int randomBaloonIndex;
            //    bool lunchbaloon = false;
            //    if (lunchAllBaloons)
            //    {
            //        for (int m = 0; m < instance.NrBaloons; m++)
            //        {
            //            if (ballonAltitudes[m] == 0)
            //            {
            //                solution[0, m] = 1;
            //                ballonAltitudes[m] = 1;
            //                Coordinate startWindData = instance.WindData[0, instance.StartCell.XCoordinate, instance.StartCell.YCoordinate];
            //                Coordinate startNewCoordiante = loonfunction.ChangeBaloonCoordinate(startWindData, instance.StartCell);
            //                balloonsCoordinate[0, m] = startNewCoordiante;
            //            }

            //        }
            //    }
            //    else
            //    {
            //        int randomNumnerOfBaloonsToLunch = randomNumberGenerator.Next(instance.NrBaloons / 4, instance.NrBaloons);
            //        int m = 0;
            //        while (m < randomNumnerOfBaloonsToLunch)
            //        {
            //            randomBaloonIndex = randomNumberGenerator.Next(0, instance.NrBaloons);
            //            if (ballonAltitudes[randomBaloonIndex] == 0)
            //            {
            //                solution[0, randomBaloonIndex] = 1;
            //                ballonAltitudes[randomBaloonIndex] = 1;
            //                Coordinate startWindData = instance.WindData[0, instance.StartCell.XCoordinate, instance.StartCell.YCoordinate];
            //                Coordinate startNewCoordiante = loonfunction.ChangeBaloonCoordinate(startWindData, instance.StartCell);
            //                balloonsCoordinate[0, randomBaloonIndex] = startNewCoordiante;
            //                m++;
            //            }
            //        }
            //    }

            //    for (int j = 0; j < solution.GetLength(0); j++)
            //    {
            //        for (int i = 0; i < randomNumberOfBalloons; i++)
            //        {



            //            //int[] row = loonfunction.getDimension(solution, j, 0);



            //            //Logjika eshte gjetja e pathit optimal per loon ne fjale
            //            //duke e marre parasyshe qe te gjithe balonat tjere ndodhen ne gjendje qetesie

            //            if (!(j == 0))
            //            {
            //                newCoordinate = new Coordinate();
            //                posibilityScoreMax = 0;
            //                altitudeAdjustment = 0;
            //                coordinateToSet = new Coordinate();

            //                if (ballonAltitudes[i] != 0)
            //                {
            //                    if (balloonsCoordinate[j - 1, i].XCoordinate >= 0 && balloonsCoordinate[j - 1, i].XCoordinate < instance.NrRows)
            //                    {
            //                        windData = instance.WindData[ballonAltitudes[i] - 1, balloonsCoordinate[j - 1, i].XCoordinate, balloonsCoordinate[j - 1, i].YCoordinate];
            //                        coordinateToSet = loonfunction.ChangeBaloonCoordinate(windData, balloonsCoordinate[j - 1, i]);

            //                    }

            //                }
            //                //add initial coordinate value if coordinate 
            //                //is not set below for specific constraints

            //                numberOfTimesNoSolution = 0;
            //                takeOptimalSolution = randomNumberGenerator.Next(1, 101) <= takeOptimal;
            //                for (int k = 0; k < possibilities.Length; k++)
            //                {
            //                    altitudeAfterAdjustment = ballonAltitudes[i] + possibilities[k];
            //                    // kushti per mos humbjen e loon, nuk duhet te kaloj numri maksimal i altitudes
            //                    // nuk e marrim kete lartesi constraint 
            //                    //constraint i problemit, nuk guxon ta tejkaloj 

            //                    //hard constraint
            //                    if ((altitudeAfterAdjustment > instance.Altitudes) || (ballonAltitudes[i] != 0 && altitudeAfterAdjustment < 1) || (altitudeAfterAdjustment < 0))
            //                    {
            //                        continue;
            //                    }
            //                    else if (altitudeAfterAdjustment > 0)
            //                    {
            //                        previousTurnCoordiante = new Coordinate();
            //                        windData = new Coordinate();
            //                        //altitude e balones eshte zero
            //                        if (altitudeAfterAdjustment == 1 && ballonAltitudes[i] == 0)
            //                        {
            //                            lunchbaloon = false;
            //                            if (lunchbaloon)
            //                            {
            //                                balloonsCoordinate[j, i] = instance.StartCell;
            //                                windData = instance.WindData[altitudeAfterAdjustment - 1, balloonsCoordinate[j, i].XCoordinate, balloonsCoordinate[j, i].YCoordinate];
            //                                newCoordinate = loonfunction.ChangeBaloonCoordinate(windData, balloonsCoordinate[j, i]);
            //                                //this two variables are set to soluion after break
            //                                coordinateToSet = newCoordinate;
            //                                altitudeAdjustment = altitudeAfterAdjustment;
            //                            }
            //                            else
            //                            {
            //                                altitudeAdjustment = 0;
            //                                coordinateToSet = new Coordinate();
            //                            }
            //                            break;
            //                        }
            //                        else
            //                        {
            //                            //pervious baloon coordinate (save that on a variable)
            //                            previousTurnCoordiante = balloonsCoordinate[j - 1, i];
            //                            //soft constraint
            //                            if (previousTurnCoordiante.XCoordinate < 0 || previousTurnCoordiante.XCoordinate >= instance.NrRows)
            //                            {
            //                                newCoordinate = previousTurnCoordiante;
            //                                coordinateToSet = newCoordinate;
            //                                break;
            //                            }
            //                            windData = instance.WindData[altitudeAfterAdjustment - 1, previousTurnCoordiante.XCoordinate, previousTurnCoordiante.YCoordinate];
            //                            newCoordinate = loonfunction.ChangeBaloonCoordinate(windData, previousTurnCoordiante);

            //                        }
            //                        //After the coordiante change baloon goes outside of the row grid
            //                        if (newCoordinate.XCoordinate < 0 || newCoordinate.XCoordinate >= instance.NrRows)
            //                        {
            //                            numberOfTimesNoSolution++;
            //                            if (numberOfTimesNoSolution == possibilities.Length)
            //                            {
            //                                //caktoje nje lartesi te caktume random 
            //                                altitudeAdjustment = possibilities[k];
            //                                coordinateToSet = newCoordinate;
            //                                break;
            //                            }
            //                            continue;
            //                        }
            //                        //gjeje optimalen
            //                        if (takeOptimalSolution)
            //                        {
            //                            targetCellsCovered = loonfunction.CalculateCoveredTargetCells(newCoordinate);
            //                            //just one baloons coordinate have been changed, get balloon coordinate 
            //                            balloonCoordinate = loonfunction.GetCoordinateRow(balloonsCoordinate, j);
            //                            targetCellsCoveredFromOtherBalloons = loonfunction.TargetCellsCoveredForRow(ballonAltitudes, balloonCoordinate, instance.NrBaloons, i);
            //                            targetCellsCovered.AddRange(targetCellsCoveredFromOtherBalloons);
            //                            distinctTargetCellsCovered = loonfunction.CalculateCoveredDistinctTargetCells(targetCellsCovered);

            //                            //Nese plotesohet kushti mundohemi me gjete ende zgjidhje me te mira
            //                            if (posibilityScoreMax < distinctTargetCellsCovered)
            //                            {
            //                                posibilityScoreMax = distinctTargetCellsCovered;
            //                                altitudeAdjustment = possibilities[k];
            //                                coordinateToSet = newCoordinate;
            //                            }
            //                        }
            //                        //gjeje random
            //                        else
            //                        {
            //                            randomAltitude = possibilities[randomNumberGenerator.Next(0, 3)];
            //                            altitudeAfterAdjustment = ballonAltitudes[i] + randomAltitude;
            //                            if ((altitudeAfterAdjustment > instance.Altitudes) || (ballonAltitudes[i] != 0 && altitudeAfterAdjustment < 1))
            //                            {
            //                                continue;
            //                            }
            //                            previousTurnCoordiante = balloonsCoordinate[j - 1, i];
            //                            if (previousTurnCoordiante.XCoordinate < 0 || previousTurnCoordiante.XCoordinate >= instance.NrRows)
            //                            {
            //                                newCoordinate = previousTurnCoordiante;
            //                                coordinateToSet = newCoordinate;
            //                                break;
            //                            }
            //                            windData = instance.WindData[altitudeAfterAdjustment - 1, previousTurnCoordiante.XCoordinate, previousTurnCoordiante.YCoordinate];
            //                            newCoordinate = loonfunction.ChangeBaloonCoordinate(windData, previousTurnCoordiante); coordinateToSet = newCoordinate;
            //                            altitudeAdjustment = randomAltitude;
            //                            break;
            //                        }
            //                    }
            //                }
            //                ballonAltitudes[i] = ballonAltitudes[i] + altitudeAdjustment;
            //                balloonsCoordinate[j, i] = coordinateToSet;
            //                solution[j, i] = altitudeAdjustment;
            //            }
            //        }
            //    }
            //    if (!(solutions.Add(solution)))
            //    {
            //        popSize = popSize + 1;
            //        ballonAltitudes.Populate(0);
            //        continue;
            //    }
            //    else
            //    {
            //        Solution solutionObject = new Solution(instance.NrRows, instance.NrColumns);
            //        solutionObject.solutionMatrix = solution;
            //        solutionObject.balloonsCoordinate = balloonsCoordinate;
            //        solutionsList.Add(solutionObject);
            //    }
            //    ballonAltitudes.Populate(0);

            //}